<?xml version="1.1" encoding="UTF-8"?>
<testsuite name="activityinstrumentation.SampleAppiumTest" tests="1" failures="0" errors="0" timestamp="2014-08-22T15:14:13" hostname="Viktors-MacBook-Pro.local" time="19.592">
  <properties/>
  <testcase name="addContact" classname="activityinstrumentation.SampleAppiumTest" time="19.592"/>
  <system-out><![CDATA[]]></system-out>
  <system-err><![CDATA[]]></system-err>
</testsuite>
